module gitlab.com/alphaticks/abigen-starknet

go 1.18

require (
	github.com/davecgh/go-spew v1.1.1
	github.com/ethereum/go-ethereum v1.10.19
	github.com/stretchr/testify v1.7.5
	gopkg.in/urfave/cli.v1 v1.20.0
)

require (
	github.com/StackExchange/wmi v0.0.0-20180116203802-5d049714c4a6 // indirect
	github.com/VictoriaMetrics/fastcache v1.6.0 // indirect
	github.com/btcsuite/btcd/btcec/v2 v2.2.0 // indirect
	github.com/cespare/xxhash/v2 v2.1.1 // indirect
	github.com/deckarep/golang-set v1.8.0 // indirect
	github.com/decred/dcrd/dcrec/secp256k1/v4 v4.0.1 // indirect
	github.com/deepmap/oapi-codegen v1.8.2 // indirect
	github.com/edsrzf/mmap-go v1.0.0 // indirect
	github.com/fjl/memsize v0.0.0-20190710130421-bcb5799ab5e5 // indirect
	github.com/gballet/go-libpcsclite v0.0.0-20190607065134-2772fd86a8ff // indirect
	github.com/go-ole/go-ole v1.2.1 // indirect
	github.com/go-stack/stack v1.8.0 // indirect
	github.com/golang-jwt/jwt/v4 v4.3.0 // indirect
	github.com/golang/snappy v0.0.4 // indirect
	github.com/google/uuid v1.2.0 // indirect
	github.com/gorilla/websocket v1.4.2 // indirect
	github.com/graph-gophers/graphql-go v1.3.0 // indirect
	github.com/hashicorp/go-bexpr v0.1.10 // indirect
	github.com/hashicorp/golang-lru v0.5.5-0.20210104140557-80c98217689d // indirect
	github.com/holiman/bloomfilter/v2 v2.0.3 // indirect
	github.com/holiman/uint256 v1.2.0 // indirect
	github.com/huin/goupnp v1.0.3 // indirect
	github.com/influxdata/influxdb v1.8.3 // indirect
	github.com/influxdata/influxdb-client-go/v2 v2.4.0 // indirect
	github.com/influxdata/line-protocol v0.0.0-20210311194329-9aa0e372d097 // indirect
	github.com/jackpal/go-nat-pmp v1.0.2 // indirect
	github.com/mattn/go-colorable v0.1.8 // indirect
	github.com/mattn/go-isatty v0.0.12 // indirect
	github.com/mattn/go-runewidth v0.0.9 // indirect
	github.com/mitchellh/mapstructure v1.4.1 // indirect
	github.com/mitchellh/pointerstructure v1.2.0 // indirect
	github.com/olekukonko/tablewriter v0.0.5 // indirect
	github.com/opentracing/opentracing-go v1.1.0 // indirect
	github.com/peterh/liner v1.1.1-0.20190123174540-a2c9a5303de7 // indirect
	github.com/pkg/errors v0.9.1 // indirect
	github.com/pmezard/go-difflib v1.0.0 // indirect
	github.com/prometheus/tsdb v0.7.1 // indirect
	github.com/rjeczalik/notify v0.9.1 // indirect
	github.com/rs/cors v1.7.0 // indirect
	github.com/shirou/gopsutil v3.21.4-0.20210419000835-c7a38de76ee5+incompatible // indirect
	github.com/status-im/keycard-go v0.0.0-20190316090335-8537d3370df4 // indirect
	github.com/syndtr/goleveldb v1.0.1-0.20210819022825-2ae1ddf74ef7 // indirect
	github.com/tklauser/go-sysconf v0.3.5 // indirect
	github.com/tklauser/numcpus v0.2.2 // indirect
	github.com/tyler-smith/go-bip39 v1.0.1-0.20181017060643-dbb3b84ba2ef // indirect
	golang.org/x/crypto v0.0.0-20210921155107-089bfa567519 // indirect
	golang.org/x/net v0.0.0-20211015210444-4f30a5c0130f // indirect
	golang.org/x/sync v0.0.0-20210220032951-036812b2e83c // indirect
	golang.org/x/sys v0.0.0-20211019181941-9d821ace8654 // indirect
	golang.org/x/text v0.3.7 // indirect
	golang.org/x/time v0.0.0-20210220033141-f8bda1e9f3ba // indirect
	gopkg.in/natefinch/npipe.v2 v2.0.0-20160621034901-c1b8fa8bdcce // indirect
	gopkg.in/yaml.v2 v2.4.0 // indirect
	gopkg.in/yaml.v3 v3.0.1 // indirect
)
